…
data:  ctrl_obs_2cat_vs_mobility
X-squared = 57.045, df = 3, p-value = 0.000000000002514


	Pearson's Chi-squared test

data:  gender_vs_mobility
X-squared = 1092.9, df = 6, p-value < 0.00000000000000022

[1] "##################################################"
`summarise()` has grouped output by 'ctrl_obs_2cat', 'gender'. You can override
using the `.groups` argument.
[1] "##################################################"
[1] "A summary table is created for groups and proportion of researchers per groups as:"
# A tibble: 24 x 6
# Groups:   ctrl_obs_2cat, gender [6]
   ctrl_obs_2cat gender  mobility_status2 count etotal Proportion
   <fct>         <fct>   <fct>            <int>  <int>      <dbl>
 1 Others        Female  Non mobile        1463   3282      44.6 
 2 Others        Female  Both               312   3282       9.51
 3 Others        Female  Internal           815   3282      24.8 
 4 Others        Female  International      692   3282      21.1 
 5 Others        Male    Non mobile        4039   9277      43.5 
 6 Others        Male    Both               902   9277       9.72
 7 Others        Male    Internal          2267   9277      24.4 
 8 Others        Male    International     2069   9277      22.3 
 9 Others        Unknown Non mobile        1049   1664      63.0 
10 Others        Unknown Both                36   1664       2.16
# i 14 more rows
…
