…
data:  ctrl_obs_2cat_vs_mobility
X-squared = 57.045, df = 3, p-value = 0.000000000002514


	Pearson's Chi-squared test

data:  gender_vs_mobility
X-squared = 49.072, df = 6, p-value = 0.000000007212

[1] "##################################################"
`summarise()` has grouped output by 'ctrl_obs_2cat', 'gender'. You can override
using the `.groups` argument.
[1] "##################################################"
[1] "A summary table is created for groups and proportion of researchers per groups as:"
# A tibble: 24 x 6
# Groups:   ctrl_obs_2cat, gender [6]
   ctrl_obs_2cat gender  mobility_status2 count etotal Proportion
   <fct>         <fct>   <fct>            <int>  <int>      <dbl>
 1 Others        Female  Non mobile        1691   3566      47.4 
 2 Others        Female  Both               311   3566       8.72
 3 Others        Female  Internal           875   3566      24.5 
 4 Others        Female  International      689   3566      19.3 
 5 Others        Male    Non mobile        4750  10421      45.6 
 6 Others        Male    Both               922  10421       8.85
 7 Others        Male    Internal          2604  10421      25.0 
 8 Others        Male    International     2145  10421      20.6 
 9 Others        Unknown Non mobile         110    236      46.6 
10 Others        Unknown Both                17    236       7.20
# i 14 more rows
…
